MUX adder -vhdl/test.vcd
$date
  Wed Mar 06 22:03:01 2019
$end
$version
  GHDL v0
$end
$timescale
  1 fs
$end
$var reg 1 ! in1 $end
$var reg 1 " in2 $end
$var reg 1 # in3 $end
$var reg 1 $ in4 $end
$var reg 1 % in5 $end
$var reg 1 & in6 $end
$var reg 1 ' in7 $end
$var reg 1 ( in8 $end
$var reg 1 ) in9 $end
$var reg 1 * in10 $end
$var reg 1 + in11 $end
$var reg 1 , in12 $end
$var reg 1 - in13 $end
$var reg 1 . in14 $end
$var reg 1 / in15 $end
$var reg 1 0 in16 $end
$var reg 1 1 in17 $end
$var reg 1 2 in18 $end
$var reg 1 3 in19 $end
$var reg 1 4 in20 $end
$var reg 1 5 in21 $end
$var reg 1 6 in22 $end
$var reg 1 7 in23 $end
$var reg 1 8 in24 $end
$var reg 1 9 in25 $end
$var reg 1 : in26 $end
$var reg 1 ; in27 $end
$var reg 1 < in28 $end
$var reg 1 = in29 $end
$var reg 1 > in30 $end
$var reg 1 ? in31 $end
$var reg 1 @ in32 $end
$var reg 1 A in33 $end
$var reg 1 B in34 $end
$var reg 1 C in35 $end
$var reg 1 D in36 $end
$var reg 1 E in37 $end
$var reg 1 F in38 $end
$var reg 1 G in39 $end
$var reg 1 H in40 $end
$var reg 1 I in41 $end
$var reg 1 J in42 $end
$var reg 1 K in43 $end
$var reg 1 L in44 $end
$var reg 1 M in45 $end
$var reg 1 N in46 $end
$var reg 1 O in47 $end
$var reg 1 P in48 $end
$var reg 1 Q sel1 $end
$var reg 1 R sel2 $end
$var reg 1 S sel3 $end
$var reg 1 T sel4 $end
$var reg 1 U s1 $end
$var reg 1 V s0 $end
$var reg 1 W cout $end
$scope module u_if1 $end
$var reg 1 X in1 $end
$var reg 1 Y in2 $end
$var reg 1 Z in3 $end
$var reg 1 [ in4 $end
$var reg 1 \ in5 $end
$var reg 1 ] in6 $end
$var reg 1 ^ in7 $end
$var reg 1 _ in8 $end
$var reg 1 ` in9 $end
$var reg 1 a in10 $end
$var reg 1 b in11 $end
$var reg 1 c in12 $end
$var reg 1 d in13 $end
$var reg 1 e in14 $end
$var reg 1 f in15 $end
$var reg 1 g in16 $end
$var reg 1 h in17 $end
$var reg 1 i in18 $end
$var reg 1 j in19 $end
$var reg 1 k in20 $end
$var reg 1 l in21 $end
$var reg 1 m in22 $end
$var reg 1 n in23 $end
$var reg 1 o in24 $end
$var reg 1 p in25 $end
$var reg 1 q in26 $end
$var reg 1 r in27 $end
$var reg 1 s in28 $end
$var reg 1 t in29 $end
$var reg 1 u in30 $end
$var reg 1 v in31 $end
$var reg 1 w in32 $end
$var reg 1 x in33 $end
$var reg 1 y in34 $end
$var reg 1 z in35 $end
$var reg 1 { in36 $end
$var reg 1 | in37 $end
$var reg 1 } in38 $end
$var reg 1 !" in39 $end
$var reg 1 "" in40 $end
$var reg 1 #" in41 $end
$var reg 1 $" in42 $end
$var reg 1 %" in43 $end
$var reg 1 &" in44 $end
$var reg 1 '" in45 $end
$var reg 1 (" in46 $end
$var reg 1 )" in47 $end
$var reg 1 *" in48 $end
$var reg 1 +" a1 $end
$var reg 1 ," a0 $end
$var reg 1 -" b1 $end
$var reg 1 ." b0 $end
$var reg 1 /" s1 $end
$var reg 1 0" s0 $end
$var reg 1 1" cout $end
$upscope $end
$enddefinitions $end
#0
0!
0"
1#
1$
0%
1&
1'
0(
1)
1*
0+
0,
1-
0.
0/
10
01
12
03
14
15
06
17
08
09
1:
0;
1<
1=
0>
1?
0@
0A
0B
0C
0D
0E
0F
0G
1H
0I
0J
1K
1L
0M
1N
1O
1P
0Q
0R
0S
0T
0U
0V
0W
0X
0Y
1Z
1[
0\
1]
1^
0_
1`
1a
0b
0c
1d
0e
0f
1g
0h
1i
0j
1k
1l
0m
1n
0o
0p
1q
0r
1s
1t
0u
1v
0w
0x
0y
0z
0{
0|
0}
0!"
1""
0#"
0$"
1%"
1&"
0'"
1("
1)"
1*"
0+"
0,"
0-"
0."
0/"
00"
01"
#10000000
1"
0$
1%
0'
0*
1,
0-
1/
11
02
13
04
05
16
07
18
19
0:
1;
0<
0=
1>
0?
1@
1D
1G
1J
1M
1V
1Y
0[
1\
0^
0a
1c
0d
1f
1h
0i
1j
0k
0l
1m
0n
1o
1p
0q
1r
0s
0t
1u
0v
1w
1{
1!"
1$"
1'"
10"
#20000000
0"
1$
0%
1'
1*
0,
1-
0/
01
12
03
14
15
06
17
08
09
1:
0;
1<
1=
0>
1?
0@
0D
0G
0J
0M
1T
0Y
1[
0\
1^
1a
0c
1d
0f
0h
1i
0j
1k
1l
0m
1n
0o
0p
1q
0r
1s
1t
0u
1v
0w
0{
0!"
0$"
0'"
1."
#30000000
1"
0$
1%
0'
0*
1,
0-
1/
11
02
13
04
05
16
07
18
19
0:
1;
0<
0=
1>
0?
1@
1D
1G
1J
1M
1U
0V
1Y
0[
1\
0^
0a
1c
0d
1f
1h
0i
1j
0k
0l
1m
0n
1o
1p
0q
1r
0s
0t
1u
0v
1w
1{
1!"
1$"
1'"
1/"
00"
#40000000
0"
1$
0%
1'
1*
0,
1-
0/
01
12
03
14
15
06
17
08
09
1:
0;
1<
1=
0>
1?
0@
0D
0G
0J
0M
1S
0T
0Y
1[
0\
1^
1a
0c
1d
0f
0h
1i
0j
1k
1l
0m
1n
0o
0p
1q
0r
1s
1t
0u
1v
0w
0{
0!"
0$"
0'"
1-"
0."
#50000000
1"
0$
1%
0'
0*
1,
0-
1/
11
02
13
04
05
16
07
18
19
0:
1;
0<
0=
1>
0?
1@
1D
1G
1J
1M
1V
1Y
0[
1\
0^
0a
1c
0d
1f
1h
0i
1j
0k
0l
1m
0n
1o
1p
0q
1r
0s
0t
1u
0v
1w
1{
1!"
1$"
1'"
10"
#60000000
0"
1$
0%
1'
1*
0,
1-
0/
01
12
03
14
15
06
17
08
09
1:
0;
1<
1=
0>
1?
0@
0D
0G
0J
0M
1T
0Y
1[
0\
1^
1a
0c
1d
0f
0h
1i
0j
1k
1l
0m
1n
0o
0p
1q
0r
1s
1t
0u
1v
0w
0{
0!"
0$"
0'"
1."
#70000000
1"
0$
1%
0'
0*
1,
0-
1/
11
02
13
04
05
16
07
18
19
0:
1;
0<
0=
1>
0?
1@
1D
1G
1J
1M
0U
0V
1W
1Y
0[
1\
0^
0a
1c
0d
1f
1h
0i
1j
0k
0l
1m
0n
1o
1p
0q
1r
0s
0t
1u
0v
1w
1{
1!"
1$"
1'"
0/"
00"
11"
#80000000
0"
1$
0%
1'
1*
0,
1-
0/
01
12
03
14
15
06
17
08
09
1:
0;
1<
1=
0>
1?
0@
0D
0G
0J
0M
1R
0S
0T
1V
0W
0Y
1[
0\
1^
1a
0c
1d
0f
0h
1i
0j
1k
1l
0m
1n
0o
0p
1q
0r
1s
1t
0u
1v
0w
0{
0!"
0$"
0'"
1,"
0-"
0."
10"
01"
#90000000
1"
0$
1%
0'
0*
1,
0-
1/
11
02
13
04
05
16
07
18
19
0:
1;
0<
0=
1>
0?
1@
1D
1G
1J
1M
1U
0V
1Y
0[
1\
0^
0a
1c
0d
1f
1h
0i
1j
0k
0l
1m
0n
1o
1p
0q
1r
0s
0t
1u
0v
1w
1{
1!"
1$"
1'"
1/"
00"
#100000000
0"
1$
0%
1'
1*
0,
1-
0/
01
12
03
14
15
06
17
08
09
1:
0;
1<
1=
0>
1?
0@
0D
0G
0J
0M
1T
0Y
1[
0\
1^
1a
0c
1d
0f
0h
1i
0j
1k
1l
0m
1n
0o
0p
1q
0r
1s
1t
0u
1v
0w
0{
0!"
0$"
0'"
1."
#110000000
1"
0$
1%
0'
0*
1,
0-
1/
11
02
13
04
05
16
07
18
19
0:
1;
0<
0=
1>
0?
1@
1D
1G
1J
1M
1V
1Y
0[
1\
0^
0a
1c
0d
1f
1h
0i
1j
0k
0l
1m
0n
1o
1p
0q
1r
0s
0t
1u
0v
1w
1{
1!"
1$"
1'"
10"
#120000000
0"
1$
0%
1'
1*
0,
1-
0/
01
12
03
14
15
06
17
08
09
1:
0;
1<
1=
0>
1?
0@
0D
0G
0J
0M
1S
0T
0Y
1[
0\
1^
1a
0c
1d
0f
0h
1i
0j
1k
1l
0m
1n
0o
0p
1q
0r
1s
1t
0u
1v
0w
0{
0!"
0$"
0'"
1-"
0."
#130000000
1"
0$
1%
0'
0*
1,
0-
1/
11
02
13
04
05
16
07
18
19
0:
1;
0<
0=
1>
0?
1@
1D
1G
1J
1M
0U
0V
1W
1Y
0[
1\
0^
0a
1c
0d
1f
1h
0i
1j
0k
0l
1m
0n
1o
1p
0q
1r
0s
0t
1u
0v
1w
1{
1!"
1$"
1'"
0/"
00"
11"
#140000000
0"
1$
0%
1'
1*
0,
1-
0/
01
12
03
14
15
06
17
08
09
1:
0;
1<
1=
0>
1?
0@
0D
0G
0J
0M
1T
0Y
1[
0\
1^
1a
0c
1d
0f
0h
1i
0j
1k
1l
0m
1n
0o
0p
1q
0r
1s
1t
0u
1v
0w
0{
0!"
0$"
0'"
1."
#150000000
1"
0$
1%
0'
0*
1,
0-
1/
11
02
13
04
05
16
07
18
19
0:
1;
0<
0=
1>
0?
1@
1D
1G
1J
1M
1V
1Y
0[
1\
0^
0a
1c
0d
1f
1h
0i
1j
0k
0l
1m
0n
1o
1p
0q
1r
0s
0t
1u
0v
1w
1{
1!"
1$"
1'"
10"
#160000000
0"
1$
0%
1'
1*
0,
1-
0/
01
12
03
14
15
06
17
08
09
1:
0;
1<
1=
0>
1?
0@
0D
0G
0J
0M
1Q
0R
0S
0T
1U
0V
0W
0Y
1[
0\
1^
1a
0c
1d
0f
0h
1i
0j
1k
1l
0m
1n
0o
0p
1q
0r
1s
1t
0u
1v
0w
0{
0!"
0$"
0'"
1+"
0,"
0-"
0."
1/"
00"
01"
#170000000
1"
0$
1%
0'
0*
1,
0-
1/
11
02
13
04
05
16
07
18
19
0:
1;
0<
0=
1>
0?
1@
1D
1G
1J
1M
1V
1Y
0[
1\
0^
0a
1c
0d
1f
1h
0i
1j
0k
0l
1m
0n
1o
1p
0q
1r
0s
0t
1u
0v
1w
1{
1!"
1$"
1'"
10"
#180000000
0"
1$
0%
1'
1*
0,
1-
0/
01
12
03
14
15
06
17
08
09
1:
0;
1<
1=
0>
1?
0@
0D
0G
0J
0M
1T
0Y
1[
0\
1^
1a
0c
1d
0f
0h
1i
0j
1k
1l
0m
1n
0o
0p
1q
0r
1s
1t
0u
1v
0w
0{
0!"
0$"
0'"
1."
#190000000
1"
0$
1%
0'
0*
1,
0-
1/
11
02
13
04
05
16
07
18
19
0:
1;
0<
0=
1>
0?
1@
1D
1G
1J
1M
0U
0V
1W
1Y
0[
1\
0^
0a
1c
0d
1f
1h
0i
1j
0k
0l
1m
0n
1o
1p
0q
1r
0s
0t
1u
0v
1w
1{
1!"
1$"
1'"
0/"
00"
11"
#200000000
0"
1$
0%
1'
1*
0,
1-
0/
01
12
03
14
15
06
17
08
09
1:
0;
1<
1=
0>
1?
0@
0D
0G
0J
0M
1S
0T
0Y
1[
0\
1^
1a
0c
1d
0f
0h
1i
0j
1k
1l
0m
1n
0o
0p
1q
0r
1s
1t
0u
1v
0w
0{
0!"
0$"
0'"
1-"
0."
#210000000
1"
0$
1%
0'
0*
1,
0-
1/
11
02
13
04
05
16
07
18
19
0:
1;
0<
0=
1>
0?
1@
1D
1G
1J
1M
1V
1Y
0[
1\
0^
0a
1c
0d
1f
1h
0i
1j
0k
0l
1m
0n
1o
1p
0q
1r
0s
0t
1u
0v
1w
1{
1!"
1$"
1'"
10"
#220000000
0"
1$
0%
1'
1*
0,
1-
0/
01
12
03
14
15
06
17
08
09
1:
0;
1<
1=
0>
1?
0@
0D
0G
0J
0M
1T
0Y
1[
0\
1^
1a
0c
1d
0f
0h
1i
0j
1k
1l
0m
1n
0o
0p
1q
0r
1s
1t
0u
1v
0w
0{
0!"
0$"
0'"
1."
#230000000
1"
0$
1%
0'
0*
1,
0-
1/
11
02
13
04
05
16
07
18
19
0:
1;
0<
0=
1>
0?
1@
1D
1G
1J
1M
1U
0V
1Y
0[
1\
0^
0a
1c
0d
1f
1h
0i
1j
0k
0l
1m
0n
1o
1p
0q
1r
0s
0t
1u
0v
1w
1{
1!"
1$"
1'"
1/"
00"
#240000000
0"
1$
0%
1'
1*
0,
1-
0/
01
12
03
14
15
06
17
08
09
1:
0;
1<
1=
0>
1?
0@
0D
0G
0J
0M
1R
0S
0T
1V
0W
0Y
1[
0\
1^
1a
0c
1d
0f
0h
1i
0j
1k
1l
0m
1n
0o
0p
1q
0r
1s
1t
0u
1v
0w
0{
0!"
0$"
0'"
1,"
0-"
0."
10"
01"
#250000000
1"
0$
1%
0'
0*
1,
0-
1/
11
02
13
04
05
16
07
18
19
0:
1;
0<
0=
1>
0?
1@
1D
1G
1J
1M
0U
0V
1W
1Y
0[
1\
0^
0a
1c
0d
1f
1h
0i
1j
0k
0l
1m
0n
1o
1p
0q
1r
0s
0t
1u
0v
1w
1{
1!"
1$"
1'"
0/"
00"
11"
#260000000
0"
1$
0%
1'
1*
0,
1-
0/
01
12
03
14
15
06
17
08
09
1:
0;
1<
1=
0>
1?
0@
0D
0G
0J
0M
1T
0Y
1[
0\
1^
1a
0c
1d
0f
0h
1i
0j
1k
1l
0m
1n
0o
0p
1q
0r
1s
1t
0u
1v
0w
0{
0!"
0$"
0'"
1."
#270000000
1"
0$
1%
0'
0*
1,
0-
1/
11
02
13
04
05
16
07
18
19
0:
1;
0<
0=
1>
0?
1@
1D
1G
1J
1M
1V
1Y
0[
1\
0^
0a
1c
0d
1f
1h
0i
1j
0k
0l
1m
0n
1o
1p
0q
1r
0s
0t
1u
0v
1w
1{
1!"
1$"
1'"
10"
#280000000
0"
1$
0%
1'
1*
0,
1-
0/
01
12
03
14
15
06
17
08
09
1:
0;
1<
1=
0>
1?
0@
0D
0G
0J
0M
1S
0T
0Y
1[
0\
1^
1a
0c
1d
0f
0h
1i
0j
1k
1l
0m
1n
0o
0p
1q
0r
1s
1t
0u
1v
0w
0{
0!"
0$"
0'"
1-"
0."
#290000000
1"
0$
1%
0'
0*
1,
0-
1/
11
02
13
04
05
16
07
18
19
0:
1;
0<
0=
1>
0?
1@
1D
1G
1J
1M
1U
0V
1Y
0[
1\
0^
0a
1c
0d
1f
1h
0i
1j
0k
0l
1m
0n
1o
1p
0q
1r
0s
0t
1u
0v
1w
1{
1!"
1$"
1'"
1/"
00"
#300000000
0"
1$
0%
1'
1*
0,
1-
0/
01
12
03
14
15
06
17
08
09
1:
0;
1<
1=
0>
1?
0@
0D
0G
0J
0M
1T
0Y
1[
0\
1^
1a
0c
1d
0f
0h
1i
0j
1k
1l
0m
1n
0o
0p
1q
0r
1s
1t
0u
1v
0w
0{
0!"
0$"
0'"
1."
#310000000
1"
0$
1%
0'
0*
1,
0-
1/
11
02
13
04
05
16
07
18
19
0:
1;
0<
0=
1>
0?
1@
1D
1G
1J
1M
1V
1Y
0[
1\
0^
0a
1c
0d
1f
1h
0i
1j
0k
0l
1m
0n
1o
1p
0q
1r
0s
0t
1u
0v
1w
1{
1!"
1$"
1'"
10"
